{
  "nextId": 3,
  "items": [
      {
          "id": 1,
          "login": "@yoon",
          "role": 1,
          "fullname": "Yoon Seung Ho",
          "registeredAt": "2018-09-19T10:05:19Z",
          "avaUrl": "../../images/user.jpg",
          "bio":"i cry and die ",
          "isEnabled": false
      }
      ,
      {
          "id": 2,
          "login": "igor",
          "role": 1,
          "fullname": "Igor Belov",
          "registeredAt": "2018-09-19T10:05:19Z",
          "avaUrl": "http://progbase.herokuapp.com/images/progbase.jpg",
          "bio":"and die",
          "isEnabled": true
      }
  ]
}